<?xml version="1.0" encoding="UTF-8" standalone="no"?>
<!DOCTYPE svg PUBLIC "-//W3C//DTD SVG 1.1//EN"
"http://www.w3.org/Graphics/SVG/1.1/DTD/svg11.dtd">
<svg viewBox="0 0 935 1430" version="1.1" xmlns="http://www.w3.org/2000/svg" xmlns:xlink="http://www.w3.org/1999/xlink">
<defs>
<style type="text/css"><![CDATA[
.g0{
fill: none;
stroke: #000000;
stroke-width: 0.916;
stroke-linecap: butt;
stroke-linejoin: miter;
}
.g1{
fill: none;
stroke: #000000;
stroke-width: 0.611;
stroke-linecap: butt;
stroke-linejoin: miter;
}
]]></style>
</defs>
<image preserveAspectRatio="none" x="110" y="55" width="352" height="84" xlink:href="img/1.png"/>
<path d="M120.2,225.3h5.2m-15.2,834.5H276.4m218.8,0H596" class="g0"/>
<path d="M495.2,1074.6h199" class="g1"/>
<path d="M110.2,1111.2H484m-373.8,18.9H371.6" class="g0"/>
<path d="M110.2,1144.9h96.4" class="g1"/>
<path d="M110.2,1258.4H257.7m237.5,0H670.7" class="g0"/>
<path d="M110.2,1273.1H214.8m280.4,0h205" class="g1"/>
</svg>